…
    ## [1] "list"

``` r
class(gapminder)
```

    ## [1] "tbl_df"     "tbl"        "data.frame"

``` r
gapminder
```

    ## # A tibble: 1,704 x 6
    ##    country     continent  year lifeExp      pop gdpPercap
    ##    <fct>       <fct>     <int>   <dbl>    <int>     <dbl>
    ##  1 Afghanistan Asia       1952    28.8  8425333      779.
    ##  2 Afghanistan Asia       1957    30.3  9240934      821.
    ##  3 Afghanistan Asia       1962    32.0 10267083      853.
    ##  4 Afghanistan Asia       1967    34.0 11537966      836.
    ##  5 Afghanistan Asia       1972    36.1 13079460      740.
    ##  6 Afghanistan Asia       1977    38.4 14880372      786.
    ##  7 Afghanistan Asia       1982    39.9 12881816      978.
    ##  8 Afghanistan Asia       1987    40.8 13867957      852.
    ##  9 Afghanistan Asia       1992    41.7 16317921      649.
    ## 10 Afghanistan Asia       1997    41.8 22227415      635.
    ## # ... with 1,694 more rows
…
**Lastly, let’s experiment a couple more `dplyr` functions.**

``` r
select(gapminder, -continent, - gdpPercap) %>% 
  filter(year == "2007") %>%
  arrange(lifeExp)
```

    ## # A tibble: 142 x 4
    ##    country                   year lifeExp      pop
    ##    <fct>                    <int>   <dbl>    <int>
    ##  1 Swaziland                 2007    39.6  1133066
    ##  2 Mozambique                2007    42.1 19951656
    ##  3 Zambia                    2007    42.4 11746035
    ##  4 Sierra Leone              2007    42.6  6144562
    ##  5 Lesotho                   2007    42.6  2012649
    ##  6 Angola                    2007    42.7 12420476
    ##  7 Zimbabwe                  2007    43.5 12311143
    ##  8 Afghanistan               2007    43.8 31889923
    ##  9 Central African Republic  2007    44.7  4369038
    ## 10 Liberia                   2007    45.7  3193942
    ## # ... with 132 more rows
…
