…
Compute some measure of life expectancy (mean? median? min? max?) for all possible combinations of continent and year. Reshape that to have one row per year and one variable for each continent. Or the other way around: one row per continent and one variable per year.

-   Use knitr::kable() to make these tables look pretty in your rendered homework.
-   Is there a plot that is easier to make with the data in this shape versis the usual form? If so (or you think so), try it! Reflect.

So what we are trying to do here is calculate the mean life expectancy for every combination of continent and year. Then reduce down to a table with just the year, continent, and mean. So let's use the group\_by and summarise function.

``` r
gapminder %>% 
  group_by(continent,year) %>%
  summarise(meanLife = mean(lifeExp))
```

    ## # A tibble: 60 x 3
    ## # Groups:   continent [?]
    ##    continent  year meanLife
    ##    <fct>     <int>    <dbl>
    ##  1 Africa     1952     39.1
    ##  2 Africa     1957     41.3
    ##  3 Africa     1962     43.3
    ##  4 Africa     1967     45.3
    ##  5 Africa     1972     47.5
    ##  6 Africa     1977     49.6
    ##  7 Africa     1982     51.6
    ##  8 Africa     1987     53.3
    ##  9 Africa     1992     53.6
    ## 10 Africa     1997     53.6
    ## # ... with 50 more rows
…
-   One row per country, a country variable and one or more variables with extra info, such as language spoken, NATO membership, national animal, or capitol city.
-   One row per continent, a continent variable and one or more variables with extra info, such as northern versus southern hemisphere.

So let's start with the countries, and their languages. We will begin by uploading a dataset with all the countries and their languages. Then remove all the NA's, then rename the columns (remember that the column name that you want to use to join must be identical in both datasets).

``` r
LanguageCountry <- read_excel("LanguageCountry.xlsx")

LangCountry <- LanguageCountry %>%
                        na.omit() 
colnames(LangCountry) <- c("country", "language")
LangCountry
```

    ## # A tibble: 241 x 2
    ##    country          language                                              
    ##    <chr>            <chr>                                                 
    ##  1 Afghanistan      Afghan Persian or Dari (official) 80% (Dari functions…
    ##  2 Akrotiri         English, Greek                                        
    ##  3 Albania          Albanian 98.8% (official - derived from Tosk dialect)…
    ##  4 Algeria          Arabic (official), French (lingua franca), Berber or …
    ##  5 American Samoa   Samoan 88.6% (closely related to Hawaiian and other P…
    ##  6 Andorra          Catalan (official), French, Castilian, Portuguese     
    ##  7 Angola           Portuguese 71.2% (official), Umbundu 23%, Kikongo 8.2…
    ##  8 Anguilla         English (official)                                    
    ##  9 Antigua and Bar… English (official), Antiguan creole                   
    ## 10 Argentina        Spanish (official), Italian, English, German, French,…
    ## # ... with 231 more rows
…
``` r
reducedGap <- gapminder %>%
                group_by(country) %>%
                summarise(meanpop = mean(pop)) %>%
                mutate_if(is.factor, as.character)
```

Join the two together with full join.

``` r
LangPopCountry <- full_join(LangCountry, reducedGap, by = "country")
LangPopCountry
```

    ## # A tibble: 254 x 3
    ##    country         language                                        meanpop
    ##    <chr>           <chr>                                             <dbl>
    ##  1 Afghanistan     Afghan Persian or Dari (official) 80% (Dari f…   1.58e7
    ##  2 Akrotiri        English, Greek                                  NA     
    ##  3 Albania         Albanian 98.8% (official - derived from Tosk …   2.58e6
    ##  4 Algeria         Arabic (official), French (lingua franca), Be…   1.99e7
    ##  5 American Samoa  Samoan 88.6% (closely related to Hawaiian and…  NA     
    ##  6 Andorra         Catalan (official), French, Castilian, Portug…  NA     
    ##  7 Angola          Portuguese 71.2% (official), Umbundu 23%, Kik…   7.31e6
    ##  8 Anguilla        English (official)                              NA     
    ##  9 Antigua and Ba… English (official), Antiguan creole             NA     
    ## 10 Argentina       Spanish (official), Italian, English, German,…   2.86e7
    ## # ... with 244 more rows
…
